{
    "_config_name": "block.custom.footer_block",
    "delta": "footer_block",
    "info": "Footer Block",
    "title": "",
    "description": "",
    "body": {
        "value": "<hr />\r\n<p>NASA Official: Abigail R. Seadler</p>\r\n\r\n<p><a href=\"/contact\">Contact Us</a></p>\r\n",
        "format": "full_wysiwyg"
    },
    "default_langcode": "und"
}
