{
    "_config_name": "field.field.field_doi",
    "field_name": "field_doi",
    "type": "text",
    "translatable": false,
    "module": "text",
    "active": 1,
    "locked": 0,
    "cardinality": "1",
    "deleted": 0,
    "entity_types": [],
    "settings": {
        "max_length": "255"
    },
    "storage": {
        "type": "field_sql_storage",
        "settings": [],
        "module": "field_sql_storage",
        "active": 1
    }
}
