{
    "_config_name": "field.field.field_notified",
    "field_name": "field_notified",
    "type": "computed",
    "translatable": false,
    "module": "computed_field",
    "active": 1,
    "locked": 0,
    "cardinality": "-1",
    "deleted": 0,
    "entity_types": [],
    "settings": {
        "code": "if (empty($entity_field)) {\r\n$entity_field[0]['value'] = 0;\r\n}",
        "display_format": "$display_output = $entity_field_item['value'];",
        "recalculate": 0,
        "store": 1,
        "database": {
            "data_type": "int",
            "data_length": "32",
            "data_size": "normal",
            "data_precision": "10",
            "data_scale": "2",
            "data_default": "",
            "data_not_NULL": 0,
            "data_index": 0
        }
    },
    "storage": {
        "type": "field_sql_storage",
        "settings": [],
        "module": "field_sql_storage",
        "active": 1
    }
}
