{
    "_config_name": "field.instance.node.result.field_contact_name",
    "field_name": "field_contact_name",
    "entity_type": "node",
    "bundle": "result",
    "label": "Primary Contact Name",
    "widget": {
        "weight": "3",
        "type": "text_textfield",
        "module": "text",
        "active": 1,
        "settings": {
            "size": "60"
        }
    },
    "description": "Enter your name OR the best point of contact to learn more",
    "required": 1,
    "deleted": 0,
    "default_value": [
        {
            "value": ""
        }
    ],
    "default_value_function": null,
    "settings": {
        "text_processing": "0",
        "description_display": "after",
        "better_formats": {
            "allowed_formats_toggle": 0,
            "allowed_formats": {
                "filtered_html": "filtered_html",
                "full_wysiwyg": "full_wysiwyg",
                "full_html": "full_html",
                "plain_text": "plain_text"
            },
            "default_order_toggle": 0,
            "default_order_wrapper": {
                "formats": {
                    "filtered_html": {
                        "weight": "0"
                    },
                    "full_wysiwyg": {
                        "weight": "0"
                    },
                    "full_html": {
                        "weight": "1"
                    },
                    "plain_text": {
                        "weight": "10"
                    }
                }
            }
        },
        "user_register_form": false
    },
    "display": {
        "default": {
            "label": "inline",
            "type": "text_default",
            "weight": "6",
            "settings": [],
            "module": "text"
        },
        "full": {
            "label": "inline",
            "type": "hidden",
            "weight": "31",
            "settings": []
        },
        "complete": {
            "label": "inline",
            "type": "text_default",
            "weight": "13",
            "settings": [],
            "module": "text"
        }
    }
}
