{
    "_config_name": "field.field.field_embargoed",
    "field_name": "field_embargoed",
    "type": "computed",
    "translatable": false,
    "module": "computed_field",
    "active": 1,
    "locked": 0,
    "cardinality": "1",
    "deleted": 0,
    "entity_types": [],
    "settings": {
        "code": "$embargoed = 0;\r\n$restricted = field_get_items($entity_type, $entity, 'field_restrict_access');\r\nif (!empty($restricted[0]['value'])) {\r\n $embargoed = 1;\r\n}\r\nelse {\r\n $approval = field_get_items($entity_type, $entity, 'field_sti_approval');\r\n $embargoed = (int)empty($approval[0]['value']);\r\n}\r\n$entity_field[0]['value'] = $embargoed;",
        "display_format": "$display_output = $entity_field_item['value'];",
        "recalculate": 0,
        "store": 1,
        "database": {
            "data_type": "int",
            "data_length": "32",
            "data_size": "tiny",
            "data_precision": "10",
            "data_scale": "2",
            "data_default": "0",
            "data_not_NULL": 1,
            "data_index": 0
        }
    },
    "storage": {
        "type": "field_sql_storage",
        "settings": [],
        "module": "field_sql_storage",
        "active": 1
    }
}
