{
    "_config_name": "field.instance.node.result.field_summary_image",
    "field_name": "field_summary_image",
    "entity_type": "node",
    "bundle": "result",
    "label": "Summary Image (Optional)",
    "widget": {
        "weight": "10",
        "type": "image_image",
        "module": "image",
        "active": 1,
        "settings": {
            "progress_indicator": "throbber",
            "browser_view": "image_library",
            "preview_image_style": "thumbnail"
        }
    },
    "description": "<p><b><i>More Information:</i></b> This image will appear as the \"cover\" image when someone clicks to view your submitted result. </p>\r\n\r\n<p> </p>",
    "required": 0,
    "deleted": 0,
    "default_value": null,
    "default_value_function": null,
    "settings": {
        "file_directory": "results/[date:custom:Y]-[date:custom:m]",
        "file_extensions": "png gif jpg jpeg",
        "max_filesize": "",
        "max_dimensions": "",
        "min_dimensions": "",
        "alt_field": 1,
        "title_field": 0,
        "orientate": 0,
        "description_display": "after",
        "default_image": "",
        "user_register_form": false
    },
    "display": {
        "default": {
            "label": "inline",
            "type": "image",
            "weight": "14",
            "settings": {
                "image_style": "",
                "image_link": "",
                "image_float": ""
            },
            "module": "image"
        },
        "full": {
            "label": "hidden",
            "type": "hidden",
            "weight": "11",
            "settings": []
        },
        "complete": {
            "label": "inline",
            "type": "image",
            "weight": "9",
            "settings": {
                "image_style": "",
                "image_link": "",
                "image_float": ""
            },
            "module": "image"
        }
    }
}
