{
    "_config_name": "field.instance.paragraphs_item.contact.field_contact_name",
    "field_name": "field_contact_name",
    "entity_type": "paragraphs_item",
    "bundle": "contact",
    "label": "Contact Name",
    "widget": {
        "weight": "2",
        "type": "text_textfield",
        "module": "text",
        "active": 1,
        "settings": {
            "size": "60"
        }
    },
    "description": "",
    "required": 0,
    "deleted": 0,
    "default_value": [
        {
            "value": ""
        }
    ],
    "default_value_function": null,
    "settings": {
        "text_processing": "0",
        "description_display": "after",
        "better_formats": {
            "allowed_formats_toggle": 0,
            "allowed_formats": {
                "filtered_html": "filtered_html",
                "full_wysiwyg": "full_wysiwyg",
                "full_html": "full_html",
                "plain_text": "plain_text"
            },
            "default_order_toggle": 0,
            "default_order_wrapper": {
                "formats": {
                    "filtered_html": {
                        "weight": "0"
                    },
                    "full_wysiwyg": {
                        "weight": "0"
                    },
                    "full_html": {
                        "weight": "1"
                    },
                    "plain_text": {
                        "weight": "10"
                    }
                }
            }
        },
        "user_register_form": false
    },
    "display": {
        "default": {
            "label": "hidden",
            "type": "text_plain",
            "weight": "0",
            "settings": [],
            "module": "text"
        },
        "export": {
            "label": "above",
            "type": "hidden",
            "weight": "1",
            "settings": []
        }
    }
}
