{
    "_config_name": "field.instance.node.result.field_publication_date",
    "field_name": "field_publication_date",
    "entity_type": "node",
    "bundle": "result",
    "label": "Publication Date",
    "widget": {
        "weight": "52",
        "type": "date_popup",
        "module": "date",
        "active": 1,
        "settings": {
            "input_format": "m/d/Y - g:i:sa",
            "input_format_custom": "",
            "year_range": "-3:+3",
            "increment": "1",
            "label_position": "none",
            "text_parts": [],
            "no_fieldset": 1
        }
    },
    "description": "",
    "required": 0,
    "deleted": 0,
    "default_value": null,
    "default_value_function": null,
    "settings": {
        "default_value": "blank",
        "default_value_code": "",
        "default_value2": "same",
        "default_value_code2": "",
        "user_register_form": false
    },
    "display": {
        "default": {
            "label": "inline",
            "type": "date_default",
            "weight": "19",
            "settings": {
                "format_type": "long",
                "multiple_number": "",
                "multiple_from": "",
                "multiple_to": "",
                "fromto": "both",
                "show_remaining_days": false
            },
            "module": "date"
        },
        "full": {
            "label": "inline",
            "type": "hidden",
            "weight": "15",
            "settings": []
        },
        "complete": {
            "label": "inline",
            "type": "date_default",
            "weight": "17",
            "settings": {
                "format_type": "long",
                "multiple_number": "",
                "multiple_from": "",
                "multiple_to": "",
                "fromto": "both",
                "show_remaining_days": false
            },
            "module": "date"
        }
    }
}
