{
    "_config_name": "field_group.field_group.node.result.default.group_sections",
    "group_name": "group_sections",
    "entity_type": "node",
    "bundle": "result",
    "mode": "default",
    "children": [
        "group_documents_images",
        "group_funding",
        "group_general",
        "group_pubstage",
        "group_significance",
        "group_sources",
        "group_supplement"
    ],
    "parent_name": "",
    "weight": "0",
    "label": "Sections",
    "format_type": "tabs",
    "format_settings": {
        "formatter": "",
        "instance_settings": {
            "classes": "group-sections field-group-tabs",
            "id": ""
        }
    },
    "collapsible": false,
    "collapsed": false
}
