{
    "_config_name": "field.instance.node.monthly_status_review.field_ppt_file",
    "field_name": "field_ppt_file",
    "entity_type": "node",
    "bundle": "monthly_status_review",
    "label": "PPT File",
    "widget": {
        "weight": "-2",
        "type": "file_generic",
        "module": "file",
        "active": 1,
        "settings": {
            "progress_indicator": "throbber"
        }
    },
    "description": "",
    "required": 1,
    "deleted": 0,
    "default_value": null,
    "default_value_function": null,
    "settings": {
        "file_directory": "monthly/[date:custom:Y]-[date:custom:m]",
        "file_extensions": "ppt pptx",
        "max_filesize": "",
        "description_field": 1,
        "user_register_form": false
    },
    "display": {
        "default": {
            "label": "hidden",
            "type": "file_default",
            "settings": [],
            "module": "file",
            "weight": 1
        }
    }
}
