{
    "_config_name": "field.instance.user.user.field_complete_name",
    "field_name": "field_complete_name",
    "entity_type": "user",
    "bundle": "user",
    "label": "Complete Name",
    "widget": {
        "weight": "10",
        "type": "computed",
        "module": "computed_field",
        "active": 0,
        "settings": []
    },
    "description": "",
    "required": 0,
    "deleted": 0,
    "default_value": null,
    "default_value_function": null,
    "settings": {
        "description_display": "after",
        "user_register_form": 0
    },
    "display": {
        "default": {
            "label": "hidden",
            "type": "computed_field_plain",
            "weight": "0",
            "settings": [],
            "module": "computed_field"
        }
    }
}
