{
    "_config_name": "field.field.field_center",
    "field_name": "field_center",
    "type": "taxonomy_term_reference",
    "translatable": false,
    "module": "taxonomy",
    "active": 1,
    "locked": 0,
    "cardinality": "-1",
    "deleted": 0,
    "entity_types": [],
    "settings": {
        "allowed_values": [
            {
                "vocabulary": "centers",
                "parent": "0"
            }
        ]
    },
    "storage": {
        "type": "field_sql_storage",
        "settings": [],
        "module": "field_sql_storage",
        "active": 1
    }
}
