{
    "_config_name": "field_group.field_group.node.result.form.group_sections",
    "group_name": "group_sections",
    "entity_type": "node",
    "bundle": "result",
    "mode": "form",
    "children": [
        "group_background",
        "group_datasources",
        "group_documents",
        "group_funding",
        "group_publication",
        "group_significance",
        "group_supplementary"
    ],
    "parent_name": "",
    "weight": "0",
    "label": "Sections",
    "format_type": "tabs",
    "format_settings": {
        "formatter": "",
        "instance_settings": {
            "classes": "group-sections field-group-tabs",
            "id": ""
        }
    },
    "collapsible": false,
    "collapsed": false
}
