{
    "_config_name": "field.field.field_solicitation_num",
    "field_name": "field_solicitation_num",
    "type": "link_field",
    "translatable": false,
    "module": "link",
    "active": 1,
    "locked": 0,
    "cardinality": "1",
    "deleted": 0,
    "entity_types": [],
    "settings": [],
    "storage": {
        "type": "field_sql_storage",
        "settings": [],
        "module": "field_sql_storage",
        "active": 1
    }
}
