{
    "_config_name": "node.type.page",
    "type": "page",
    "name": "Page",
    "description": "Add a page with static content, like the 'About' page.",
    "settings": {
        "status_default": 1,
        "promote_enabled": 0,
        "promote_default": 0,
        "sticky_enabled": 0,
        "sticky_default": 0,
        "revision_enabled": 1,
        "revision_default": 1,
        "node_submitted": 0,
        "node_user_picture": 0,
        "comment_default": "1",
        "menu_options": {
            "main-menu": "main-menu",
            "user-menu": 0,
            "management": 0,
            "menu-landing-pages": 0,
            "menu-sidebar-admin": 0,
            "menu-sidebar-navigation": 0
        },
        "comment_enabled": false,
        "comment_per_page": "50",
        "comment_mode": 1,
        "comment_anonymous": 0,
        "comment_subject_field": 0,
        "comment_user_picture": 1,
        "comment_form_location": 1,
        "comment_preview": "1",
        "comment_close_enabled": 0,
        "comment_close_days": "14",
        "menu_parent": "main-menu:0",
        "scheduling_enabled": 1,
        "hidden_path": 0,
        "language": 0,
        "node_permissions": true,
        "node_preview": "1",
        "draft_enabled": 1,
        "skip_required": 0
    },
    "base": "node_content",
    "module": "node",
    "help": "",
    "modified": true,
    "disabled": false,
    "has_title": true,
    "title_label": "Title",
    "orig_type": "page",
    "node_preview": "1"
}
