{
    "_config_name": "taxonomy.vocabulary.data_sources",
    "name": "Data Sources",
    "machine_name": "data_sources",
    "description": "",
    "hierarchy": "0",
    "language": 0,
    "weight": 0
}
