{
    "_config_name": "taxonomy.vocabulary.solicitations",
    "name": "Solicitations",
    "machine_name": "solicitations",
    "description": "NSPIRES Solicitation Numbers (they aren't numbers)",
    "hierarchy": "0",
    "language": 0,
    "weight": 0
}
