{
    "_config_name": "views.view.my_content",
    "name": "my_content",
    "description": "",
    "tag": "default",
    "disabled": false,
    "base_table": "node",
    "human_name": "My Content",
    "core": "1.12.2",
    "display": {
        "default": {
            "display_title": "Master",
            "display_plugin": "default",
            "display_options": {
                "query": {
                    "type": "views_query",
                    "options": []
                },
                "access": {
                    "type": "perm",
                    "perm": "access content"
                },
                "cache": {
                    "type": "none"
                },
                "exposed_form": {
                    "type": "basic"
                },
                "pager": {
                    "type": "full",
                    "options": {
                        "items_per_page": "10",
                        "offset": "0",
                        "id": "0",
                        "total_pages": "",
                        "quantity": "9",
                        "tags": {
                            "first": "« first",
                            "previous": "‹ previous",
                            "next": "next ›",
                            "last": "last »"
                        },
                        "expose": {
                            "items_per_page": 0,
                            "items_per_page_label": "Items per page",
                            "items_per_page_options": "5, 10, 20, 40, 60",
                            "items_per_page_options_all": 0,
                            "items_per_page_options_all_label": "- All -",
                            "offset": 0,
                            "offset_label": "Offset"
                        }
                    }
                },
                "style_plugin": "table",
                "row_plugin": "fields",
                "fields": {
                    "title": {
                        "id": "title",
                        "table": "node",
                        "field": "title",
                        "relationship": "none",
                        "group_type": "group",
                        "ui_name": "",
                        "label": "Title",
                        "exclude": 0,
                        "alter": {
                            "alter_text": 0,
                            "text": "",
                            "make_link": 0,
                            "path": "",
                            "absolute": 0,
                            "external": 0,
                            "replace_spaces": 0,
                            "path_case": "none",
                            "trim_whitespace": 0,
                            "alt": "",
                            "rel": "",
                            "link_class": "",
                            "prefix": "",
                            "suffix": "",
                            "target": "",
                            "nl2br": 0,
                            "max_length": "",
                            "word_boundary": 0,
                            "ellipsis": 0,
                            "more_link": 0,
                            "more_link_text": "",
                            "more_link_path": "",
                            "strip_tags": 0,
                            "trim": 0,
                            "preserve_tags": "",
                            "html": 0
                        },
                        "element_type": "",
                        "element_class": "",
                        "element_label_type": "",
                        "element_label_class": "",
                        "element_label_colon": 1,
                        "element_wrapper_type": "",
                        "element_wrapper_class": "",
                        "element_default_classes": 1,
                        "empty": "",
                        "hide_empty": 0,
                        "empty_zero": 0,
                        "hide_alter_empty": 1,
                        "link_to_node": 1
                    },
                    "created": {
                        "id": "created",
                        "table": "node",
                        "field": "created",
                        "relationship": "none",
                        "group_type": "group",
                        "ui_name": "",
                        "label": "Post date",
                        "exclude": 0,
                        "alter": {
                            "alter_text": 0,
                            "text": "",
                            "make_link": 0,
                            "path": "",
                            "absolute": 0,
                            "external": 0,
                            "replace_spaces": 0,
                            "path_case": "none",
                            "trim_whitespace": 0,
                            "alt": "",
                            "rel": "",
                            "link_class": "",
                            "prefix": "",
                            "suffix": "",
                            "target": "",
                            "nl2br": 0,
                            "max_length": "",
                            "word_boundary": 1,
                            "ellipsis": 1,
                            "more_link": 0,
                            "more_link_text": "",
                            "more_link_path": "",
                            "strip_tags": 0,
                            "trim": 0,
                            "preserve_tags": "",
                            "html": 0
                        },
                        "element_type": "",
                        "element_class": "",
                        "element_label_type": "",
                        "element_label_class": "",
                        "element_label_colon": 1,
                        "element_wrapper_type": "",
                        "element_wrapper_class": "",
                        "element_default_classes": 1,
                        "empty": "",
                        "hide_empty": 0,
                        "empty_zero": 0,
                        "hide_alter_empty": 1,
                        "date_format": "short",
                        "custom_date_format": "",
                        "timezone": ""
                    },
                    "status": {
                        "id": "status",
                        "table": "node",
                        "field": "status",
                        "relationship": "none",
                        "group_type": "group",
                        "ui_name": "",
                        "label": "Published",
                        "exclude": 0,
                        "alter": {
                            "alter_text": 0,
                            "text": "",
                            "make_link": 0,
                            "path": "",
                            "absolute": 0,
                            "external": 0,
                            "replace_spaces": 0,
                            "path_case": "none",
                            "trim_whitespace": 0,
                            "alt": "",
                            "rel": "",
                            "link_class": "",
                            "prefix": "",
                            "suffix": "",
                            "target": "",
                            "nl2br": 0,
                            "max_length": "",
                            "word_boundary": 1,
                            "ellipsis": 1,
                            "more_link": 0,
                            "more_link_text": "",
                            "more_link_path": "",
                            "strip_tags": 0,
                            "trim": 0,
                            "preserve_tags": "",
                            "html": 0
                        },
                        "element_type": "",
                        "element_class": "",
                        "element_label_type": "",
                        "element_label_class": "",
                        "element_label_colon": 1,
                        "element_wrapper_type": "",
                        "element_wrapper_class": "",
                        "element_default_classes": 1,
                        "empty": "",
                        "hide_empty": 0,
                        "empty_zero": 0,
                        "hide_alter_empty": 1,
                        "type": "yes-no",
                        "type_custom_true": "",
                        "type_custom_false": "",
                        "not": 0
                    },
                    "type": {
                        "id": "type",
                        "table": "node",
                        "field": "type"
                    },
                    "field_complete_name": {
                        "id": "field_complete_name",
                        "table": "field_data_field_complete_name",
                        "field": "field_complete_name",
                        "relationship": "uid",
                        "group_type": "group",
                        "ui_name": "",
                        "label": "",
                        "exclude": 1,
                        "alter": {
                            "alter_text": 0,
                            "text": "",
                            "make_link": 0,
                            "path": "",
                            "absolute": 0,
                            "external": 0,
                            "replace_spaces": 0,
                            "path_case": "none",
                            "trim_whitespace": 0,
                            "alt": "",
                            "rel": "",
                            "link_class": "",
                            "prefix": "",
                            "suffix": "",
                            "target": "",
                            "nl2br": 0,
                            "max_length": "",
                            "word_boundary": 1,
                            "ellipsis": 1,
                            "more_link": 0,
                            "more_link_text": "",
                            "more_link_path": "",
                            "strip_tags": 0,
                            "trim": 0,
                            "preserve_tags": "",
                            "html": 0
                        },
                        "element_type": "",
                        "element_class": "",
                        "element_label_type": "",
                        "element_label_class": "",
                        "element_label_colon": false,
                        "element_wrapper_type": "",
                        "element_wrapper_class": "",
                        "element_default_classes": 1,
                        "empty": "",
                        "hide_empty": 0,
                        "empty_zero": 0,
                        "hide_alter_empty": 1,
                        "click_sort_column": "value",
                        "type": "computed_field_plain",
                        "settings": [],
                        "group_column": "value",
                        "group_columns": [],
                        "group_rows": true,
                        "delta_limit": "all",
                        "delta_offset": 0,
                        "delta_reversed": false,
                        "delta_first_last": false,
                        "multi_type": "separator",
                        "separator": ", ",
                        "field_api_classes": 0
                    }
                },
                "filters": {
                    "status": {
                        "value": 1,
                        "table": "node",
                        "field": "status",
                        "id": "status",
                        "expose": {
                            "operator": false
                        },
                        "group": 1
                    }
                },
                "sorts": {
                    "created": {
                        "id": "created",
                        "table": "node",
                        "field": "created",
                        "order": "DESC"
                    }
                },
                "title": "My Content",
                "row_options": {
                    "default_field_elements": 0,
                    "inline": [],
                    "separator": "",
                    "hide_empty": 0
                },
                "arguments": {
                    "uid": {
                        "id": "uid",
                        "table": "node",
                        "field": "uid",
                        "relationship": "none",
                        "group_type": "group",
                        "ui_name": "",
                        "default_action": "default",
                        "exception": {
                            "value": "all",
                            "title_enable": 0,
                            "title": "All"
                        },
                        "title_enable": 1,
                        "title": "asdfasdf [name]",
                        "breadcrumb_enable": 0,
                        "breadcrumb": "",
                        "default_argument_type": "user",
                        "default_argument_options": {
                            "user": 0
                        },
                        "default_argument_skip_url": 0,
                        "summary_options": {
                            "base_path": "",
                            "count": "1",
                            "items_per_page": "25",
                            "override": 0
                        },
                        "summary": {
                            "sort_order": "asc",
                            "number_of_records": "0",
                            "format": "default_summary"
                        },
                        "specify_validation": 0,
                        "validate": {
                            "type": "none",
                            "fail": "not found"
                        },
                        "validate_options": [],
                        "break_phrase": 0,
                        "not": 0
                    }
                },
                "style_options": {
                    "grouping": [],
                    "row_class": "",
                    "default_row_class": 1,
                    "row_class_special": 1,
                    "override": 1,
                    "sticky": 0,
                    "caption": "",
                    "summary": "",
                    "columns": {
                        "title": "title"
                    },
                    "info": {
                        "title": {
                            "sortable": 0,
                            "default_sort_order": "asc",
                            "align": "",
                            "separator": "",
                            "empty_column": 0
                        }
                    },
                    "default": "-1",
                    "empty_table": 0
                },
                "relationships": {
                    "uid": {
                        "id": "uid",
                        "table": "node",
                        "field": "uid",
                        "relationship": "none",
                        "group_type": "group",
                        "ui_name": "",
                        "label": "author",
                        "required": 1
                    }
                }
            }
        },
        "page": {
            "display_title": "Page",
            "display_plugin": "page",
            "display_options": {
                "query": {
                    "type": "views_query",
                    "options": []
                },
                "path": "user/%/nodes",
                "menu": {
                    "type": "none",
                    "title": "Content",
                    "description": "",
                    "name": "user-menu",
                    "weight": "40",
                    "context": 0,
                    "context_only_inline": 0
                }
            }
        }
    }
}
